{
    "timezone": null,
    "fullName": "Vincent Kok",
    "email": "vkok@atlassian.com",
    "emailHash": "cb32049e633ea99d1c5a05dbde91c87e",
    "emails": [
        {
            "value": "vkok@atlassian.com"
        }
    ],
    "username": "vkok@atlassian.com",
    "org": "Atlassian",
    "title": "Development Team Lead",
    "location": "Sydney",
    "avatarUrl": null,
    "validatedEmails": [
        "vkok@atlassian.com"
    ],
    "fieldErrors": null
}
