<?xml version="1.0" encoding="UTF-8" standalone="no"?>
<svg width="103px" height="28px" viewBox="0 0 103 28" version="1.1" xmlns="http://www.w3.org/2000/svg" xmlns:xlink="http://www.w3.org/1999/xlink">
    <title>Bitbucket Loves npm</title>
    <style>
        #heart {
            animation: beat 10s ease alternate infinite;
            animation-delay: 3s;
            transform-origin: center center;
        }

        @keyframes beat {
            0% {
                transform: scale(1);
                -webkit-transform: scale(1);
            }

            2% {
                transform: scale(1.2);
                -webkit-transform: scale(1.2);
            }

            4% {
                transform: scale(1);
                -webkit-transform: scale(1);
            }

            6% {
                transform: scale(1.2);
                -webkit-transform: scale(1.2);
            }

            8% {
                transform: scale(1);
                -webkit-transform: scale(1);
            }

            92% {
                transform: scale(1);
                -webkit-transform: scale(1);
            }

            94% {
                transform: scale(1.2);
                -webkit-transform: scale(1.2);
            }

            96% {
                transform: scale(1);
                -webkit-transform: scale(1);
            }

            98% {
                transform: scale(1.2);
                -webkit-transform: scale(1.2);
            }

            100% {
                transform: scale(1);
                -webkit-transform: scale(1);
            }
        }
    </style>
    <g id="Page-1" stroke="none" stroke-width="1" fill="none" fill-rule="evenodd">
        <g id="bucket" transform="translate(12.930298, 14.054427) rotate(-12.000000) translate(-12.930298, -14.054427) translate(2.430298, 2.054427)" fill="#205081">
            <path d="M10.2,0.5 L10.2,0.5 L10.2,0.5 C4.6,0.5 0,2 0,3.9 C0,4.4 1.2,11.5 1.7,14.3 C1.9,15.6 5.2,17.4 10.2,17.4 L10.2,17.4 L10.2,17.4 C15.2,17.4 18.4,15.6 18.7,14.3 C19.2,11.5 20.4,4.4 20.4,3.9 C20.3,2 15.8,0.5 10.2,0.5 L10.2,0.5 Z M10.2,15.1 C8.4,15.1 7,13.7 7,11.9 C7,10.1 8.4,8.7 10.2,8.7 C12,8.7 13.4,10.1 13.4,11.9 C13.4,13.6 12,15.1 10.2,15.1 L10.2,15.1 Z M10.2,4.9 C6.6,4.9 3.7,4.3 3.7,3.5 C3.7,2.7 6.6,2.1 10.2,2.1 C13.8,2.1 16.7,2.7 16.7,3.5 C16.7,4.3 13.8,4.9 10.2,4.9 L10.2,4.9 Z" id="Shape"></path>
            <path d="M17.5,17 C17.3,17 17.2,17.1 17.2,17.1 C17.2,17.1 14.7,19.1 10.2,19.1 C5.7,19.1 3.2,17.1 3.2,17.1 C3.2,17.1 3,17 2.9,17 C2.7,17 2.5,17.1 2.5,17.4 L2.5,17.5 C2.9,19.6 3.2,21.1 3.2,21.3 C3.5,22.8 6.5,24 10.1,24 L10.1,24 L10.1,24 L10.1,24 L10.1,24 C13.7,24 16.7,22.8 17,21.3 C17,21.1 17.3,19.6 17.7,17.5 L17.7,17.4 C17.8,17.2 17.7,17 17.5,17 L17.5,17 Z" id="Shape"></path>
            <circle id="Oval" cx="10.2" cy="11.8" r="1.6"></circle>
        </g>
        <g id="Npm-logo" transform="translate(46.000000, 4.000000)">
            <g id="Group">
                <path d="M0,0 L54,0 L54,18 L27,18 L27,21 L15,21 L15,18 L0,18 L0,0 L0,0 Z M3,15 L9,15 L9,6 L12,6 L12,15 L15,15 L15,3 L3,3 L3,15 L3,15 Z M18,3 L18,18 L24,18 L24,15 L30,15 L30,3 L18,3 L18,3 Z M24,6 L27,6 L27,12 L24,12 L24,6 L24,6 Z M33,3 L33,15 L39,15 L39,6 L42,6 L42,15 L45,15 L45,6 L48,6 L48,15 L51,15 L51,3 L33,3 L33,3 Z" id="Shape" fill="#CB3837"></path>
                <path d="M3,15 L9,15 L9,6 L12,6 L12,15 L15,15 L15,3 L3,3 L3,15 Z" id="Shape" fill="#FFFFFF"></path>
                <path d="M18,3 L18,18 L24,18 L24,15 L30,15 L30,3 L18,3 L18,3 Z M27,12 L24,12 L24,6 L27,6 L27,12 L27,12 Z" id="Shape" fill="#FFFFFF"></path>
                <path d="M33,3 L33,15 L39,15 L39,6 L42,6 L42,15 L45,15 L45,6 L48,6 L48,15 L51,15 L51,3 L33,3 Z" id="Shape" fill="#FFFFFF"></path>
            </g>
        </g>
        <path d="M25,12.033 C25,15.152 27.831,17.061 29.959,18.737 C32.17,20.481 32.792,21.295 33.5,22 C34.209,21.295 34.801,20.442 37.042,18.736 C39.2,17.095 42,15.118 42,12 C42,7.422 36.334,4.945 33.5,9.178 C30.667,4.945 25,7.422 25,12.033 Z" id="heart" fill="#CB3837"></path>
    </g>
</svg>
